{
  "1": {
    "path": "/api/movies",
    "methods": [
      "GET"
    ],
    "controller": "ListMovieCatalogController"
  },
  "2": {
    "path": "/api/movies/title/searches",
    "methods": [
      "POST"
    ],
    "controller": "ListMovieCatalogTitlesController",
    "filters": [
      "ListMovieCatalogTitlesFilter"
    ]
  },
  "3": {
    "path": "/api/movies/:imdbid",
    "methods": [
      "GET"
    ],
    "controller": "ShowMovieCatalogController",
    "params": [
      {
        "imdbid": "IMDBID"
      }
    ]
  },
  "4": {
    "path": "/api/movies",
    "methods": [
      "POST"
    ],
    "controller": "CreateMovieCatalogController",
    "filters": [
      "CreateMovieCatalogFilter"
    ]
  },
  "5": {
    "path": "/api/movies/:imdbid",
    "methods": [
      "PUT"
    ],
    "controller": "UpdateMovieCatalogController",
    "filters": [
      "UpdateMovieCatalogFilter"
    ],
    "params": [
      {
        "imdbid": "IMDBID"
      }
    ]
  },
  "6": {
    "path": "/api/movies/:imdbid",
    "methods": [
      "DELETE"
    ],
    "controller": "DeleteMovieCatalogController",
    "params": [
      {
        "imdbid": "IMDBID"
      }
    ]
  }
}